{
  "project_info": {
    "project_number": "512704528874",
    "project_id": "ejemplofirebase-7d85b",
    "storage_bucket": "ejemplofirebase-7d85b.appspot.com"
  },
  "client": [
    {
      "client_info": {
        "mobilesdk_app_id": "1:512704528874:android:6f41f4c4b5feb270a7f293",
        "android_client_info": {
          "package_name": "mx.tecnm.misantla.ejemplofirebase"
        }
      },
      "oauth_client": [
        {
          "client_id": "512704528874-7a2e813mnilbpin24eb9u012cr8k3pu6.apps.googleusercontent.com",
          "client_type": 3
        }
      ],
      "api_key": [
        {
          "current_key": "AIzaSyDyk1VFh1BmOETGzIJSFWyM_Vy4QxrdBDM"
        }
      ],
      "services": {
        "appinvite_service": {
          "other_platform_oauth_client": [
            {
              "client_id": "512704528874-7a2e813mnilbpin24eb9u012cr8k3pu6.apps.googleusercontent.com",
              "client_type": 3
            }
          ]
        }
      }
    }
  ],
  "configuration_version": "1"
}